Gender,Parental Level Of Education,Lunch,Test Preparation Course,Math Score,Reading Score,Writing Score
female,bachelor's degree,standard,Not Completed,72,72,74
female,some college,standard,Completed,69,90,88
female,master's degree,standard,Not Completed,90,95,93
male,associate's degree,free/reduced,Not Completed,47,57,44
male,some college,standard,Not Completed,76,78,75
female,associate's degree,standard,Not Completed,71,83,78
female,some college,standard,Completed,88,95,92
male,some college,free/reduced,Not Completed,40,43,39
male,high school,free/reduced,Completed,64,64,67
female,high school,free/reduced,Not Completed,38,60,50
male,associate's degree,standard,Not Completed,58,54,52
male,associate's degree,standard,Not Completed,40,52,43
female,high school,standard,Not Completed,65,81,73
male,some college,standard,Completed,78,72,70
female,master's degree,standard,Not Completed,50,53,58
female,some high school,standard,Not Completed,69,75,78
male,high school,standard,Not Completed,88,89,86
female,some high school,free/reduced,Not Completed,18,32,28
male,master's degree,free/reduced,Completed,46,42,46
female,associate's degree,free/reduced,Not Completed,54,58,61
male,high school,standard,Not Completed,66,69,63
female,some college,free/reduced,Completed,65,75,70
male,some college,standard,Not Completed,44,54,53
female,some high school,standard,Not Completed,69,73,73
male,bachelor's degree,free/reduced,Completed,74,71,80
male,master's degree,free/reduced,Not Completed,73,74,72
male,some college,standard,Not Completed,69,54,55
female,bachelor's degree,standard,Not Completed,67,69,75
male,high school,standard,Not Completed,70,70,65
female,master's degree,standard,Not Completed,62,70,75
female,some college,standard,Not Completed,69,74,74
female,some college,standard,Not Completed,63,65,61
female,master's degree,free/reduced,Not Completed,56,72,65
male,some college,standard,Not Completed,40,42,38
male,some college,standard,Not Completed,97,87,82
male,associate's degree,standard,Completed,81,81,79
female,associate's degree,standard,Not Completed,74,81,83
female,some high school,free/reduced,Not Completed,50,64,59
female,associate's degree,free/reduced,Completed,75,90,88
male,associate's degree,free/reduced,Not Completed,57,56,57
male,associate's degree,free/reduced,Not Completed,55,61,54
female,associate's degree,standard,Not Completed,58,73,68
female,associate's degree,standard,Not Completed,53,58,65
male,some college,free/reduced,Completed,59,65,66
female,associate's degree,free/reduced,Not Completed,50,56,54
male,associate's degree,standard,Not Completed,65,54,57
female,associate's degree,standard,Completed,55,65,62
female,high school,standard,Not Completed,66,71,76
female,associate's degree,free/reduced,Completed,57,74,76
male,high school,standard,Completed,82,84,82
male,some college,standard,Not Completed,53,55,48
male,associate's degree,free/reduced,Completed,77,69,68
male,some college,standard,Not Completed,53,44,42
male,high school,standard,Not Completed,88,78,75
female,some high school,free/reduced,Completed,71,84,87
female,high school,free/reduced,Not Completed,33,41,43
female,associate's degree,standard,Completed,82,85,86
male,associate's degree,standard,Not Completed,52,55,49
male,some college,standard,Completed,58,59,58
female,some high school,free/reduced,Not Completed,0,17,10
male,bachelor's degree,free/reduced,Completed,79,74,72
male,some high school,free/reduced,Not Completed,39,39,34
male,associate's degree,free/reduced,Not Completed,62,61,55
female,associate's degree,standard,Not Completed,69,80,71
female,some high school,standard,Not Completed,59,58,59
male,some high school,standard,Not Completed,67,64,61
male,some high school,free/reduced,Not Completed,45,37,37
female,some college,standard,Not Completed,60,72,74
male,associate's degree,free/reduced,Not Completed,61,58,56
female,associate's degree,standard,Not Completed,39,64,57
female,some college,free/reduced,Completed,58,63,73
male,some college,standard,Completed,63,55,63
female,associate's degree,free/reduced,Not Completed,41,51,48
male,some high school,free/reduced,Not Completed,61,57,56
male,some high school,standard,Not Completed,49,49,41
male,associate's degree,free/reduced,Not Completed,44,41,38
male,some high school,standard,Not Completed,30,26,22
male,bachelor's degree,standard,Completed,80,78,81
female,some high school,standard,Completed,61,74,72
female,master's degree,standard,Not Completed,62,68,68
female,associate's degree,standard,Not Completed,47,49,50
male,high school,free/reduced,Not Completed,49,45,45
male,some college,free/reduced,Completed,50,47,54
male,associate's degree,standard,Not Completed,72,64,63
male,high school,free/reduced,Not Completed,42,39,34
female,some college,standard,Not Completed,73,80,82
female,some college,free/reduced,Not Completed,76,83,88
female,associate's degree,standard,Not Completed,71,71,74
female,some college,standard,Not Completed,58,70,67
female,some high school,standard,Not Completed,73,86,82
female,bachelor's degree,standard,Not Completed,65,72,74
male,high school,free/reduced,Not Completed,27,34,36
male,high school,standard,Not Completed,71,79,71
male,associate's degree,free/reduced,Completed,43,45,50
female,some college,standard,Not Completed,79,86,92
male,associate's degree,free/reduced,Completed,78,81,82
male,some high school,standard,Completed,65,66,62
female,some college,standard,Completed,63,72,70
female,some college,free/reduced,Not Completed,58,67,62
female,bachelor's degree,standard,Not Completed,65,67,62
male,some college,standard,Not Completed,79,67,67
male,bachelor's degree,standard,Completed,68,74,74
female,associate's degree,standard,Not Completed,85,91,89
male,high school,standard,Completed,60,44,47
male,some college,standard,Completed,98,86,90
female,some college,standard,Not Completed,58,67,72
female,master's degree,standard,Not Completed,87,100,100
male,associate's degree,standard,Completed,66,63,64
female,associate's degree,free/reduced,Not Completed,52,76,70
female,some high school,standard,Not Completed,70,64,72
female,associate's degree,free/reduced,Completed,77,89,98
male,high school,standard,Not Completed,62,55,49
male,associate's degree,standard,Not Completed,54,53,47
female,some college,standard,Not Completed,51,58,54
female,bachelor's degree,standard,Completed,99,100,100
male,high school,standard,Not Completed,84,77,74
female,bachelor's degree,free/reduced,Not Completed,75,85,82
female,bachelor's degree,standard,Not Completed,78,82,79
female,some high school,standard,Not Completed,51,63,61
female,some college,standard,Not Completed,55,69,65
female,bachelor's degree,standard,Completed,79,92,89
male,associate's degree,standard,Completed,91,89,92
female,some college,standard,Completed,88,93,93
male,high school,free/reduced,Not Completed,63,57,56
male,some college,standard,Not Completed,83,80,73
female,high school,standard,Not Completed,87,95,86
male,some high school,standard,Not Completed,72,68,67
male,some college,standard,Completed,65,77,74
male,master's degree,standard,Not Completed,82,82,74
female,bachelor's degree,standard,Not Completed,51,49,51
male,master's degree,standard,Not Completed,89,84,82
male,some high school,free/reduced,Completed,53,37,40
male,some college,free/reduced,Completed,87,74,70
female,some college,standard,Completed,75,81,84
male,bachelor's degree,free/reduced,Completed,74,79,75
male,bachelor's degree,standard,Not Completed,58,55,48
male,some high school,standard,Completed,51,54,41
male,high school,standard,Not Completed,70,55,56
female,associate's degree,standard,Not Completed,59,66,67
male,some college,standard,Completed,71,61,69
female,some high school,standard,Not Completed,76,72,71
female,some college,free/reduced,Not Completed,59,62,64
female,some college,free/reduced,Completed,42,55,54
male,high school,standard,Not Completed,57,43,47
male,some college,standard,Not Completed,88,73,78
female,some college,free/reduced,Not Completed,22,39,33
male,some high school,standard,Not Completed,88,84,75
male,associate's degree,free/reduced,Not Completed,73,68,66
female,bachelor's degree,standard,Completed,68,75,81
male,associate's degree,free/reduced,Completed,100,100,93
male,some high school,standard,Completed,62,67,69
male,bachelor's degree,standard,Not Completed,77,67,68
female,associate's degree,standard,Completed,59,70,66
male,bachelor's degree,standard,Not Completed,54,49,47
male,some high school,standard,Not Completed,62,67,61
female,some college,standard,Completed,70,89,88
female,high school,free/reduced,Completed,66,74,78
male,some college,free/reduced,Not Completed,60,60,60
female,associate's degree,standard,Completed,61,86,87
male,associate's degree,free/reduced,Not Completed,66,62,64
male,associate's degree,free/reduced,Completed,82,78,74
female,some college,free/reduced,Completed,75,88,85
male,master's degree,free/reduced,Not Completed,49,53,52
male,high school,standard,Not Completed,52,53,49
female,master's degree,standard,Not Completed,81,92,91
female,bachelor's degree,standard,Completed,96,100,100
male,high school,free/reduced,Completed,53,51,51
female,master's degree,free/reduced,Completed,58,76,78
female,high school,standard,Completed,68,83,78
female,some college,free/reduced,Completed,67,75,70
male,high school,standard,Completed,72,73,74
male,some high school,standard,Not Completed,94,88,78
female,some college,standard,Not Completed,79,86,81
female,associate's degree,standard,Not Completed,63,67,70
female,bachelor's degree,free/reduced,Completed,43,51,54
female,master's degree,standard,Completed,81,91,87
female,high school,free/reduced,Completed,46,54,58
female,associate's degree,standard,Completed,71,77,77
female,master's degree,free/reduced,Completed,52,70,62
female,some high school,standard,Completed,97,100,100
male,master's degree,free/reduced,Completed,62,68,75
female,some college,free/reduced,Not Completed,46,64,66
female,high school,standard,Not Completed,50,50,47
female,associate's degree,standard,Not Completed,65,69,70
male,some high school,free/reduced,Completed,45,52,49
male,associate's degree,free/reduced,Completed,65,67,65
male,high school,standard,Not Completed,80,76,65
male,some high school,standard,Completed,62,66,68
male,some high school,free/reduced,Not Completed,48,52,45
female,bachelor's degree,standard,Not Completed,77,88,87
female,associate's degree,standard,Not Completed,66,65,69
male,some college,standard,Completed,76,83,79
female,some high school,standard,Not Completed,62,64,66
male,some college,standard,Completed,77,62,62
female,master's degree,standard,Completed,69,84,85
male,associate's degree,standard,Not Completed,61,55,52
male,some high school,free/reduced,Completed,59,69,65
male,high school,free/reduced,Not Completed,55,56,51
female,some college,free/reduced,Not Completed,45,53,55
female,bachelor's degree,free/reduced,Not Completed,78,79,76
female,associate's degree,standard,Completed,67,84,86
female,some college,free/reduced,Not Completed,65,81,77
male,associate's degree,standard,Not Completed,69,77,69
female,associate's degree,standard,Not Completed,57,69,68
male,some college,standard,Not Completed,59,41,42
male,some high school,standard,Completed,74,71,78
male,bachelor's degree,standard,Not Completed,82,62,62
male,high school,standard,Completed,81,80,76
female,some college,free/reduced,Not Completed,74,81,76
female,some college,free/reduced,Not Completed,58,61,66
male,some high school,free/reduced,Completed,80,79,79
male,some college,free/reduced,Not Completed,35,28,27
female,high school,free/reduced,Not Completed,42,62,60
male,associate's degree,free/reduced,Completed,60,51,56
male,high school,standard,Completed,87,91,81
male,some high school,standard,Completed,84,83,75
female,associate's degree,free/reduced,Completed,83,86,88
female,high school,free/reduced,Not Completed,34,42,39
male,high school,free/reduced,Not Completed,66,77,70
male,some high school,standard,Completed,61,56,56
female,high school,standard,Completed,56,68,74
male,associate's degree,standard,Not Completed,87,85,73
female,some high school,free/reduced,Not Completed,55,65,62
male,some high school,standard,Not Completed,86,80,75
female,associate's degree,standard,Completed,52,66,73
female,master's degree,free/reduced,Not Completed,45,56,54
female,some college,standard,Not Completed,72,72,71
male,high school,standard,Not Completed,57,50,54
male,some high school,free/reduced,Not Completed,68,72,64
female,some college,standard,Completed,88,95,94
male,some college,standard,Not Completed,76,64,66
male,associate's degree,standard,Not Completed,46,43,42
female,bachelor's degree,standard,Not Completed,67,86,83
male,some high school,standard,Not Completed,92,87,78
male,bachelor's degree,standard,Completed,83,82,84
male,associate's degree,standard,Not Completed,80,75,77
male,bachelor's degree,free/reduced,Not Completed,63,66,67
female,some high school,standard,Completed,64,60,74
male,some college,standard,Not Completed,54,52,51
male,associate's degree,standard,Not Completed,84,80,80
male,high school,free/reduced,Completed,73,68,66
female,bachelor's degree,standard,Not Completed,80,83,83
female,high school,standard,Not Completed,56,52,55
male,some college,standard,Not Completed,59,51,43
male,some high school,standard,Not Completed,75,74,69
male,associate's degree,standard,Not Completed,85,76,71
male,associate's degree,standard,Not Completed,89,76,74
female,high school,standard,Completed,58,70,68
female,high school,standard,Not Completed,65,64,62
male,high school,standard,Not Completed,68,60,53
male,some high school,standard,Completed,47,49,49
female,some college,free/reduced,Not Completed,71,83,83
female,some high school,standard,Completed,60,70,70
male,master's degree,standard,Not Completed,80,80,72
male,high school,standard,Not Completed,54,52,52
female,some college,standard,Not Completed,62,73,70
female,associate's degree,free/reduced,Not Completed,64,73,68
male,associate's degree,standard,Completed,78,77,77
female,some college,standard,Not Completed,70,75,78
female,master's degree,free/reduced,Completed,65,81,81
female,some high school,free/reduced,Completed,64,79,77
male,some college,standard,Completed,79,79,78
female,some high school,free/reduced,Not Completed,44,50,51
female,high school,standard,Not Completed,99,93,90
male,high school,standard,Not Completed,76,73,68
male,some high school,free/reduced,Not Completed,59,42,41
female,bachelor's degree,standard,Not Completed,63,75,81
female,high school,standard,Not Completed,69,72,77
female,associate's degree,standard,Completed,88,92,95
female,some college,free/reduced,Not Completed,71,76,70
male,bachelor's degree,standard,Not Completed,69,63,61
male,some college,standard,Not Completed,58,49,42
female,associate's degree,free/reduced,Not Completed,47,53,58
female,some college,standard,Not Completed,65,70,71
male,some college,standard,Completed,88,85,76
male,bachelor's degree,standard,Not Completed,83,78,73
female,some high school,standard,Completed,85,92,93
female,high school,standard,Completed,59,63,75
female,some high school,free/reduced,Not Completed,65,86,80
male,bachelor's degree,free/reduced,Not Completed,73,56,57
male,high school,standard,Not Completed,53,52,42
male,high school,standard,Not Completed,45,48,46
female,bachelor's degree,free/reduced,Not Completed,73,79,84
female,some college,free/reduced,Completed,70,78,78
female,some high school,standard,Not Completed,37,46,46
male,associate's degree,standard,Completed,81,82,82
male,associate's degree,standard,Completed,97,82,88
female,some high school,standard,Not Completed,67,89,82
male,bachelor's degree,free/reduced,Not Completed,88,75,76
male,some high school,standard,Completed,77,76,77
male,associate's degree,standard,Not Completed,76,70,68
male,some high school,standard,Not Completed,86,73,70
male,some high school,standard,Completed,63,60,57
female,bachelor's degree,standard,Not Completed,65,73,75
male,high school,free/reduced,Completed,78,77,80
male,associate's degree,free/reduced,Not Completed,67,62,60
male,some high school,standard,Completed,46,41,43
male,associate's degree,standard,Completed,71,74,68
male,high school,free/reduced,Completed,40,46,50
male,associate's degree,free/reduced,Not Completed,90,87,75
male,some college,free/reduced,Completed,81,78,81
male,some high school,free/reduced,Not Completed,56,54,52
female,associate's degree,standard,Completed,67,84,81
male,associate's degree,standard,Not Completed,80,76,64
female,associate's degree,standard,Completed,74,75,83
male,some college,standard,Not Completed,69,67,69
male,some college,standard,Completed,99,87,81
male,some high school,standard,Not Completed,51,52,44
female,associate's degree,free/reduced,Not Completed,53,71,67
female,high school,free/reduced,Not Completed,49,57,52
female,associate's degree,standard,Not Completed,73,76,80
male,bachelor's degree,standard,Not Completed,66,60,57
male,bachelor's degree,standard,Completed,67,61,68
female,associate's degree,free/reduced,Completed,68,67,69
female,bachelor's degree,standard,Completed,59,64,75
male,high school,standard,Not Completed,71,66,65
female,master's degree,standard,Completed,77,82,91
male,associate's degree,standard,Not Completed,83,72,78
male,bachelor's degree,standard,Not Completed,63,71,69
female,associate's degree,free/reduced,Not Completed,56,65,63
female,high school,free/reduced,Completed,67,79,84
female,high school,standard,Not Completed,75,86,79
female,some college,standard,Not Completed,71,81,80
female,some high school,free/reduced,Not Completed,43,53,53
female,high school,free/reduced,Not Completed,41,46,43
female,some college,standard,Not Completed,82,90,94
male,some college,standard,Not Completed,61,61,62
male,some college,free/reduced,Not Completed,28,23,19
male,associate's degree,standard,Completed,82,75,77
female,some high school,standard,Not Completed,41,55,51
male,high school,standard,Not Completed,71,60,61
male,associate's degree,standard,Not Completed,47,37,35
male,associate's degree,standard,Completed,62,56,53
male,associate's degree,standard,Not Completed,90,78,81
female,bachelor's degree,standard,Not Completed,83,93,95
female,some college,free/reduced,Not Completed,61,68,66
male,some high school,standard,Completed,76,70,69
male,associate's degree,standard,Not Completed,49,51,43
female,some high school,free/reduced,Not Completed,24,38,27
female,some high school,free/reduced,Completed,35,55,60
male,high school,free/reduced,Not Completed,58,61,52
female,high school,standard,Not Completed,61,73,63
female,high school,standard,Completed,69,76,74
male,associate's degree,standard,Completed,67,72,67
male,some college,standard,Not Completed,79,73,67
female,high school,standard,Not Completed,72,80,75
male,some college,standard,Not Completed,62,61,57
female,bachelor's degree,standard,Completed,77,94,95
male,high school,free/reduced,Not Completed,75,74,66
male,associate's degree,standard,Not Completed,87,74,76
female,bachelor's degree,standard,Not Completed,52,65,69
male,some college,standard,Not Completed,66,57,52
female,some college,standard,Completed,63,78,80
female,associate's degree,standard,Not Completed,46,58,57
female,some college,standard,Not Completed,59,71,70
female,bachelor's degree,standard,Not Completed,61,72,70
male,associate's degree,standard,Not Completed,63,61,61
female,some college,free/reduced,Completed,42,66,69
male,some college,free/reduced,Not Completed,59,62,61
female,some college,standard,Not Completed,80,90,89
female,high school,standard,Not Completed,58,62,59
male,some high school,standard,Completed,85,84,78
female,some college,standard,Not Completed,52,58,58
female,some high school,free/reduced,Not Completed,27,34,32
male,some college,standard,Not Completed,59,60,58
male,bachelor's degree,free/reduced,Completed,49,58,60
male,high school,standard,Completed,69,58,53
male,bachelor's degree,free/reduced,Not Completed,61,66,61
female,some high school,free/reduced,Not Completed,44,64,58
female,some high school,standard,Not Completed,73,84,85
male,some college,standard,Not Completed,84,77,71
female,some college,free/reduced,Completed,45,73,70
male,some high school,standard,Not Completed,74,74,72
female,some college,standard,Completed,82,97,96
female,bachelor's degree,standard,Not Completed,59,70,73
male,associate's degree,free/reduced,Not Completed,46,43,41
female,some high school,standard,Not Completed,80,90,82
female,master's degree,free/reduced,Completed,85,95,100
female,some high school,standard,Not Completed,71,83,77
male,bachelor's degree,standard,Not Completed,66,64,62
female,associate's degree,standard,Not Completed,80,86,83
male,associate's degree,standard,Completed,87,100,95
male,master's degree,free/reduced,Not Completed,79,81,71
female,some high school,free/reduced,Not Completed,38,49,45
female,some high school,free/reduced,Not Completed,38,43,43
female,some college,standard,Not Completed,67,76,75
female,bachelor's degree,standard,Not Completed,64,73,70
female,associate's degree,free/reduced,Not Completed,57,78,67
female,high school,standard,Not Completed,62,64,64
male,master's degree,standard,Not Completed,73,70,75
male,some high school,free/reduced,Completed,73,67,59
female,some college,standard,Not Completed,77,68,77
male,some college,standard,Not Completed,76,67,67
male,associate's degree,standard,Completed,57,54,56
female,some high school,standard,Completed,65,74,77
male,high school,free/reduced,Not Completed,48,45,41
female,high school,free/reduced,Not Completed,50,67,63
female,associate's degree,standard,Not Completed,85,89,95
male,some high school,standard,Not Completed,74,63,57
male,some high school,standard,Not Completed,60,59,54
female,some high school,standard,Completed,59,54,67
male,some college,standard,Not Completed,53,43,43
female,some college,free/reduced,Not Completed,49,65,55
female,high school,standard,Completed,88,99,100
female,high school,standard,Not Completed,54,59,62
female,some high school,standard,Not Completed,63,73,68
male,associate's degree,standard,Completed,65,65,63
female,associate's degree,standard,Not Completed,82,80,77
female,high school,free/reduced,Completed,52,57,56
male,associate's degree,standard,Completed,87,84,85
female,master's degree,standard,Completed,70,71,74
male,some college,standard,Completed,84,83,78
male,associate's degree,standard,Not Completed,71,66,60
male,some high school,standard,Completed,63,67,67
female,bachelor's degree,free/reduced,Completed,51,72,79
male,high school,standard,Not Completed,84,73,69
male,bachelor's degree,standard,Completed,71,74,68
male,associate's degree,standard,Not Completed,74,73,67
male,some college,standard,Not Completed,68,59,62
male,high school,free/reduced,Completed,57,56,54
female,associate's degree,free/reduced,Completed,82,93,93
female,high school,standard,Completed,57,58,64
female,master's degree,free/reduced,Completed,47,58,67
female,some high school,standard,Completed,59,85,80
male,some college,free/reduced,Not Completed,41,39,34
female,some college,free/reduced,Not Completed,62,67,62
male,bachelor's degree,standard,Not Completed,86,83,86
male,some high school,free/reduced,Not Completed,69,71,65
male,some high school,free/reduced,Not Completed,65,59,53
male,some high school,free/reduced,Not Completed,68,63,54
male,associate's degree,free/reduced,Not Completed,64,66,59
female,high school,standard,Not Completed,61,72,70
male,high school,standard,Not Completed,61,56,55
female,some high school,free/reduced,Not Completed,47,59,50
male,some high school,standard,Not Completed,73,66,66
male,some college,free/reduced,Completed,50,48,53
male,associate's degree,standard,Not Completed,75,68,64
male,associate's degree,free/reduced,Not Completed,75,66,73
male,high school,standard,Not Completed,70,56,51
male,some high school,standard,Completed,89,88,82
female,some college,standard,Completed,67,81,79
female,high school,standard,Not Completed,78,81,80
female,some high school,free/reduced,Not Completed,59,73,69
female,associate's degree,standard,Not Completed,73,83,76
male,some high school,free/reduced,Not Completed,79,82,73
female,some high school,standard,Completed,67,74,77
male,some college,free/reduced,Not Completed,69,66,60
male,high school,standard,Completed,86,81,80
male,high school,standard,Not Completed,47,46,42
male,associate's degree,standard,Not Completed,81,73,72
female,some college,free/reduced,Completed,64,85,85
female,some college,standard,Not Completed,100,92,97
female,associate's degree,free/reduced,Not Completed,65,77,74
male,some college,free/reduced,Not Completed,65,58,49
female,associate's degree,free/reduced,Not Completed,53,61,62
male,bachelor's degree,free/reduced,Not Completed,37,56,47
female,bachelor's degree,standard,Not Completed,79,89,89
male,associate's degree,free/reduced,Not Completed,53,54,48
female,bachelor's degree,standard,Not Completed,100,100,100
male,high school,standard,Completed,72,65,68
male,bachelor's degree,free/reduced,Not Completed,53,58,55
male,some college,free/reduced,Not Completed,54,54,45
female,some college,standard,Not Completed,71,70,76
female,some college,free/reduced,Not Completed,77,90,91
male,bachelor's degree,standard,Completed,75,58,62
female,some college,standard,Not Completed,84,87,91
female,associate's degree,free/reduced,Not Completed,26,31,38
male,high school,free/reduced,Completed,72,67,65
female,high school,free/reduced,Completed,77,88,85
male,some college,standard,Not Completed,91,74,76
female,associate's degree,standard,Completed,83,85,90
female,high school,standard,Not Completed,63,69,74
female,associate's degree,standard,Completed,68,86,84
female,some high school,standard,Not Completed,59,67,61
female,associate's degree,standard,Completed,90,90,91
female,bachelor's degree,standard,Completed,71,76,83
male,bachelor's degree,standard,Completed,76,62,66
male,associate's degree,standard,Not Completed,80,68,72
female,master's degree,standard,Not Completed,55,64,70
male,associate's degree,standard,Not Completed,76,71,67
male,high school,standard,Completed,73,71,68
female,associate's degree,free/reduced,Not Completed,52,59,56
male,some college,free/reduced,Not Completed,68,68,61
male,high school,standard,Not Completed,59,52,46
female,associate's degree,standard,Not Completed,49,52,54
male,high school,standard,Not Completed,70,74,71
male,some college,free/reduced,Not Completed,61,47,56
female,associate's degree,free/reduced,Not Completed,60,75,74
male,some high school,standard,Completed,64,53,57
male,associate's degree,free/reduced,Completed,79,82,82
female,associate's degree,free/reduced,Not Completed,65,85,76
female,associate's degree,standard,Not Completed,64,64,70
female,some college,standard,Not Completed,83,83,90
female,bachelor's degree,standard,Not Completed,81,88,90
female,high school,standard,Not Completed,54,64,68
male,high school,standard,Completed,68,64,66
female,some college,standard,Not Completed,54,48,52
female,some college,free/reduced,Completed,59,78,76
female,some high school,standard,Not Completed,66,69,68
male,some college,standard,Not Completed,76,71,72
female,master's degree,standard,Not Completed,74,79,82
female,associate's degree,standard,Completed,94,87,92
male,some college,free/reduced,Not Completed,63,61,54
female,associate's degree,standard,Completed,95,89,92
female,master's degree,free/reduced,Not Completed,40,59,54
female,some high school,standard,Not Completed,82,82,80
male,high school,standard,Not Completed,68,70,66
male,bachelor's degree,free/reduced,Not Completed,55,59,54
male,master's degree,standard,Not Completed,79,78,77
female,bachelor's degree,standard,Not Completed,86,92,87
male,some college,standard,Not Completed,76,71,73
male,some high school,standard,Not Completed,64,50,43
male,some high school,free/reduced,Not Completed,62,49,52
female,some high school,standard,Completed,54,61,62
female,master's degree,free/reduced,Completed,77,97,94
female,some high school,standard,Completed,76,87,85
female,some college,standard,Not Completed,74,89,84
female,some college,standard,Completed,66,74,73
female,some high school,standard,Completed,66,78,78
female,high school,free/reduced,Completed,67,78,79
male,some college,standard,Not Completed,71,49,52
female,associate's degree,standard,Not Completed,91,86,84
male,bachelor's degree,standard,Not Completed,69,58,57
male,master's degree,free/reduced,Not Completed,54,59,50
male,high school,standard,Completed,53,52,49
male,some college,standard,Not Completed,68,60,59
male,some high school,free/reduced,Completed,56,61,60
female,high school,free/reduced,Not Completed,36,53,43
female,bachelor's degree,free/reduced,Not Completed,29,41,47
female,associate's degree,standard,Not Completed,62,74,70
female,associate's degree,standard,Completed,68,67,73
female,some high school,standard,Not Completed,47,54,53
male,associate's degree,standard,Completed,62,61,58
female,associate's degree,standard,Completed,79,88,94
male,high school,standard,Completed,73,69,68
female,bachelor's degree,free/reduced,Completed,66,83,83
male,associate's degree,standard,Completed,51,60,58
female,high school,standard,Not Completed,51,66,62
male,bachelor's degree,standard,Completed,85,66,71
male,associate's degree,standard,Completed,97,92,86
male,high school,standard,Completed,75,69,68
male,associate's degree,free/reduced,Completed,79,82,80
female,associate's degree,standard,Not Completed,81,77,79
female,associate's degree,standard,Not Completed,82,95,89
female,master's degree,standard,Not Completed,64,63,66
male,some high school,free/reduced,Completed,78,83,80
female,some high school,standard,Completed,92,100,97
male,high school,standard,Completed,72,67,64
female,high school,free/reduced,Not Completed,62,67,64
male,master's degree,standard,Not Completed,79,72,69
male,some high school,free/reduced,Not Completed,79,76,65
male,bachelor's degree,free/reduced,Completed,87,90,88
female,associate's degree,standard,Not Completed,40,48,50
male,some college,free/reduced,Not Completed,77,62,64
male,associate's degree,standard,Not Completed,53,45,40
female,some college,free/reduced,Not Completed,32,39,33
female,associate's degree,standard,Completed,55,72,79
male,master's degree,free/reduced,Not Completed,61,67,66
female,associate's degree,free/reduced,Not Completed,53,70,70
male,some high school,standard,Not Completed,73,66,62
female,some college,standard,Completed,74,75,79
female,some college,standard,Not Completed,63,74,74
male,bachelor's degree,standard,Completed,96,90,92
female,some college,free/reduced,Completed,63,80,80
male,bachelor's degree,free/reduced,Not Completed,48,51,46
male,associate's degree,standard,Not Completed,48,43,45
female,bachelor's degree,free/reduced,Completed,92,100,100
female,master's degree,free/reduced,Completed,61,71,78
male,high school,free/reduced,Not Completed,63,48,47
male,bachelor's degree,free/reduced,Not Completed,68,68,67
male,some college,standard,Completed,71,75,70
male,bachelor's degree,standard,Not Completed,91,96,92
female,some college,standard,Not Completed,53,62,56
female,high school,free/reduced,Completed,50,66,64
female,high school,standard,Not Completed,74,81,71
male,associate's degree,free/reduced,Completed,40,55,53
male,some college,standard,Completed,61,51,52
female,high school,standard,Not Completed,81,91,89
female,some college,free/reduced,Completed,48,56,58
female,master's degree,standard,Not Completed,53,61,68
female,some high school,standard,Not Completed,81,97,96
female,some high school,standard,Not Completed,77,79,80
female,bachelor's degree,free/reduced,Not Completed,63,73,78
female,associate's degree,standard,Completed,73,75,80
female,some college,standard,Not Completed,69,77,77
female,associate's degree,standard,Not Completed,65,76,76
female,high school,standard,Not Completed,55,73,73
female,bachelor's degree,free/reduced,Not Completed,44,63,62
female,some college,standard,Not Completed,54,64,65
female,some high school,standard,Not Completed,48,66,65
male,some college,free/reduced,Not Completed,58,57,54
male,some high school,standard,Not Completed,71,62,50
male,bachelor's degree,standard,Not Completed,68,68,64
female,high school,standard,Not Completed,74,76,73
female,bachelor's degree,standard,Completed,92,100,99
female,bachelor's degree,standard,Completed,56,79,72
male,high school,free/reduced,Not Completed,30,24,15
male,some high school,standard,Not Completed,53,54,48
female,high school,standard,Not Completed,69,77,73
female,some high school,standard,Not Completed,65,82,81
female,master's degree,standard,Not Completed,54,60,63
female,high school,standard,Not Completed,29,29,30
female,some college,standard,Not Completed,76,78,80
male,high school,free/reduced,Not Completed,60,57,51
male,master's degree,free/reduced,Completed,84,89,90
male,some high school,standard,Not Completed,75,72,62
female,associate's degree,standard,Not Completed,85,84,82
female,master's degree,free/reduced,Not Completed,40,58,54
female,some college,standard,Not Completed,61,64,62
female,associate's degree,standard,Not Completed,58,63,65
male,some college,free/reduced,Completed,69,60,63
female,some college,standard,Not Completed,58,59,66
male,bachelor's degree,standard,Completed,94,90,91
female,associate's degree,standard,Not Completed,65,77,74
female,associate's degree,standard,Not Completed,82,93,93
female,high school,standard,Not Completed,60,68,72
female,bachelor's degree,standard,Not Completed,37,45,38
male,bachelor's degree,standard,Not Completed,88,78,83
male,master's degree,standard,Not Completed,95,81,84
male,associate's degree,free/reduced,Completed,65,73,68
female,high school,free/reduced,Not Completed,35,61,54
male,bachelor's degree,free/reduced,Not Completed,62,63,56
male,high school,free/reduced,Completed,58,51,52
male,some college,standard,Completed,100,96,86
female,bachelor's degree,free/reduced,Not Completed,61,58,62
male,some college,standard,Completed,100,97,99
male,associate's degree,free/reduced,Completed,69,70,63
male,associate's degree,standard,Not Completed,61,48,46
male,some college,free/reduced,Not Completed,49,57,46
female,some high school,standard,Completed,44,51,55
male,some college,standard,Not Completed,67,64,70
male,high school,standard,Not Completed,79,60,65
female,bachelor's degree,standard,Completed,66,74,81
female,high school,standard,Not Completed,75,88,85
male,some high school,standard,Not Completed,84,84,80
male,high school,standard,Not Completed,71,74,64
female,high school,free/reduced,Completed,67,80,81
female,some high school,standard,Completed,80,92,88
male,some college,standard,Not Completed,86,76,74
female,associate's degree,standard,Not Completed,76,74,73
male,high school,standard,Not Completed,41,52,51
female,associate's degree,free/reduced,Completed,74,88,90
female,some high school,free/reduced,Not Completed,72,81,79
female,high school,standard,Completed,74,79,80
male,high school,standard,Not Completed,70,65,60
female,bachelor's degree,standard,Completed,65,81,81
female,associate's degree,standard,Not Completed,59,70,65
female,high school,free/reduced,Not Completed,64,62,68
female,high school,standard,Not Completed,50,53,55
female,some college,standard,Completed,69,79,81
male,some high school,free/reduced,Completed,51,56,53
female,high school,standard,Completed,68,80,76
female,some college,standard,Completed,85,86,98
female,associate's degree,standard,Completed,65,70,74
female,some high school,standard,Not Completed,73,79,79
female,some college,standard,Not Completed,62,67,67
male,associate's degree,free/reduced,Not Completed,77,67,64
male,some high school,standard,Not Completed,69,66,61
female,associate's degree,free/reduced,Not Completed,43,60,58
male,associate's degree,standard,Not Completed,90,87,85
male,some college,free/reduced,Not Completed,74,77,73
male,some high school,standard,Not Completed,73,66,63
female,some college,free/reduced,Not Completed,55,71,69
female,high school,standard,Not Completed,65,69,67
male,associate's degree,standard,Not Completed,80,63,63
female,some high school,free/reduced,Completed,50,60,60
female,some college,free/reduced,Completed,63,73,71
female,bachelor's degree,free/reduced,Not Completed,77,85,87
male,some college,standard,Not Completed,73,74,61
male,associate's degree,standard,Completed,81,72,77
female,high school,free/reduced,Not Completed,66,76,68
male,associate's degree,free/reduced,Not Completed,52,57,50
female,some college,standard,Not Completed,69,78,76
female,associate's degree,standard,Completed,65,84,84
female,high school,standard,Completed,69,77,78
female,some college,standard,Completed,50,64,66
female,some college,standard,Completed,73,78,76
female,some high school,standard,Completed,70,82,76
male,associate's degree,free/reduced,Not Completed,81,75,78
male,some college,free/reduced,Not Completed,63,61,60
female,high school,standard,Not Completed,67,72,74
male,high school,standard,Not Completed,60,68,60
male,high school,standard,Not Completed,62,55,54
female,some high school,free/reduced,Completed,29,40,44
male,some college,standard,Completed,62,66,68
female,master's degree,standard,Completed,94,99,100
male,some college,standard,Completed,85,75,68
male,associate's degree,free/reduced,Not Completed,77,78,73
male,high school,free/reduced,Not Completed,53,58,44
male,some college,free/reduced,Not Completed,93,90,83
female,associate's degree,standard,Not Completed,49,53,53
female,associate's degree,free/reduced,Not Completed,73,76,78
female,bachelor's degree,free/reduced,Completed,66,74,81
female,associate's degree,standard,Not Completed,77,77,73
female,some high school,standard,Not Completed,49,63,56
female,some college,free/reduced,Not Completed,79,89,86
female,associate's degree,standard,Completed,75,82,90
female,bachelor's degree,standard,Not Completed,59,72,70
female,associate's degree,standard,Completed,57,78,79
male,high school,free/reduced,Not Completed,66,66,59
female,bachelor's degree,standard,Completed,79,81,82
female,some high school,standard,Not Completed,57,67,72
male,bachelor's degree,standard,Completed,87,84,87
female,some college,standard,Not Completed,63,64,67
female,some high school,free/reduced,Completed,59,63,64
male,bachelor's degree,free/reduced,Not Completed,62,72,65
male,high school,standard,Not Completed,46,34,36
male,some college,standard,Not Completed,66,59,52
male,high school,standard,Not Completed,89,87,79
female,associate's degree,free/reduced,Completed,42,61,58
male,some college,standard,Completed,93,84,90
female,some high school,standard,Completed,80,85,85
female,some college,standard,Not Completed,98,100,99
male,master's degree,standard,Not Completed,81,81,84
female,some high school,standard,Completed,60,70,74
female,associate's degree,free/reduced,Completed,76,94,87
male,associate's degree,standard,Completed,73,78,72
female,associate's degree,standard,Completed,96,96,99
female,high school,standard,Not Completed,76,76,74
male,associate's degree,free/reduced,Completed,91,73,80
female,some college,free/reduced,Not Completed,62,72,70
male,some high school,free/reduced,Completed,55,59,59
female,some high school,free/reduced,Completed,74,90,88
male,high school,standard,Not Completed,50,48,42
male,some college,standard,Not Completed,47,43,41
male,some college,standard,Completed,81,74,71
female,associate's degree,standard,Completed,65,75,77
male,some high school,standard,Completed,68,51,57
female,high school,free/reduced,Not Completed,73,92,84
male,some college,standard,Not Completed,53,39,37
female,associate's degree,free/reduced,Completed,68,77,80
male,some high school,free/reduced,Not Completed,55,46,43
female,some college,standard,Completed,87,89,94
male,some high school,standard,Not Completed,55,47,44
female,some college,free/reduced,Not Completed,53,58,57
male,master's degree,standard,Not Completed,67,57,59
male,associate's degree,standard,Not Completed,92,79,84
female,some college,free/reduced,Completed,53,66,73
male,associate's degree,standard,Not Completed,81,71,73
male,high school,free/reduced,Not Completed,61,60,55
male,bachelor's degree,standard,Not Completed,80,73,72
female,associate's degree,free/reduced,Not Completed,37,57,56
female,high school,standard,Not Completed,81,84,82
female,associate's degree,standard,Completed,59,73,72
male,some college,free/reduced,Not Completed,55,55,47
male,associate's degree,standard,Not Completed,72,79,74
male,high school,standard,Not Completed,69,75,71
male,some college,standard,Not Completed,69,64,68
female,bachelor's degree,free/reduced,Not Completed,50,60,59
male,some college,standard,Completed,87,84,86
male,some high school,standard,Completed,71,69,68
male,some college,standard,Not Completed,68,72,65
male,master's degree,free/reduced,Completed,79,77,75
female,some high school,standard,Completed,77,90,85
male,associate's degree,free/reduced,Not Completed,58,55,53
female,associate's degree,standard,Not Completed,84,95,92
male,some college,standard,Not Completed,55,58,52
male,bachelor's degree,free/reduced,Completed,70,68,72
female,some college,free/reduced,Completed,52,59,65
male,some college,standard,Completed,69,77,77
female,high school,free/reduced,Not Completed,53,72,64
female,some high school,standard,Not Completed,48,58,54
male,some high school,standard,Completed,78,81,86
female,high school,standard,Not Completed,62,62,63
male,some college,standard,Not Completed,60,63,59
female,high school,standard,Not Completed,74,72,72
female,high school,standard,Completed,58,75,77
male,high school,standard,Completed,76,62,60
female,some high school,standard,Not Completed,68,71,75
male,some college,free/reduced,Not Completed,58,60,57
male,high school,standard,Not Completed,52,48,49
male,bachelor's degree,standard,Not Completed,75,73,74
female,some high school,free/reduced,Completed,52,67,72
female,bachelor's degree,free/reduced,Not Completed,62,78,79
male,some college,standard,Not Completed,66,65,60
female,some high school,free/reduced,Not Completed,49,58,55
female,high school,standard,Not Completed,66,72,70
female,some college,free/reduced,Not Completed,35,44,43
female,some college,standard,Completed,72,79,82
male,associate's degree,standard,Completed,94,85,82
female,associate's degree,free/reduced,Not Completed,46,56,57
female,master's degree,standard,Not Completed,77,90,84
female,high school,free/reduced,Completed,76,85,82
female,associate's degree,standard,Completed,52,59,62
male,bachelor's degree,standard,Completed,91,81,79
female,some high school,standard,Completed,32,51,44
female,some high school,free/reduced,Not Completed,72,79,77
female,some college,standard,Not Completed,19,38,32
male,associate's degree,free/reduced,Not Completed,68,65,61
female,master's degree,free/reduced,Not Completed,52,65,61
female,high school,standard,Not Completed,48,62,60
female,some college,free/reduced,Not Completed,60,66,70
male,high school,free/reduced,Not Completed,66,74,69
male,some high school,standard,Completed,89,84,77
female,high school,standard,Not Completed,42,52,51
female,associate's degree,free/reduced,Completed,57,68,73
male,high school,standard,Not Completed,70,70,70
female,associate's degree,free/reduced,Not Completed,70,84,81
male,some college,standard,Not Completed,69,60,54
female,associate's degree,standard,Not Completed,52,55,57
male,some high school,standard,Completed,67,73,68
male,some high school,standard,Completed,76,80,73
female,associate's degree,standard,Not Completed,87,94,95
female,some college,standard,Not Completed,82,85,87
female,some college,standard,Not Completed,73,76,78
male,some college,free/reduced,Not Completed,75,81,74
female,some college,free/reduced,Not Completed,64,74,75
female,high school,free/reduced,Not Completed,41,45,40
male,high school,standard,Not Completed,90,75,69
male,bachelor's degree,standard,Not Completed,59,54,51
male,some high school,standard,Not Completed,51,31,36
male,high school,free/reduced,Not Completed,45,47,49
female,master's degree,standard,Completed,54,64,67
male,some high school,standard,Completed,87,84,76
female,high school,standard,Not Completed,72,80,83
male,some high school,standard,Completed,94,86,87
female,bachelor's degree,standard,Not Completed,45,59,64
male,bachelor's degree,free/reduced,Completed,61,70,76
female,high school,free/reduced,Not Completed,60,72,68
female,some high school,standard,Not Completed,77,91,88
female,some high school,standard,Completed,85,90,92
female,bachelor's degree,free/reduced,Not Completed,78,90,93
male,some college,free/reduced,Completed,49,52,51
female,high school,free/reduced,Not Completed,71,87,82
female,some high school,free/reduced,Not Completed,48,58,52
male,high school,standard,Not Completed,62,67,58
female,associate's degree,free/reduced,Completed,56,68,70
female,some high school,standard,Not Completed,65,69,76
female,some high school,free/reduced,Completed,69,86,81
male,some high school,standard,Not Completed,68,54,53
female,some college,free/reduced,Not Completed,61,60,57
female,bachelor's degree,free/reduced,Completed,74,86,89
male,bachelor's degree,standard,Not Completed,64,60,58
female,high school,standard,Completed,77,82,89
male,some college,standard,Not Completed,58,50,45
female,high school,standard,Completed,60,64,74
male,high school,standard,Not Completed,73,64,57
female,high school,standard,Completed,75,82,79
male,associate's degree,free/reduced,Completed,58,57,53
female,associate's degree,standard,Not Completed,66,77,73
female,high school,free/reduced,Not Completed,39,52,46
male,some high school,standard,Not Completed,64,58,51
female,high school,free/reduced,Completed,23,44,36
male,some college,free/reduced,Completed,74,77,76
female,some high school,free/reduced,Completed,40,65,64
male,master's degree,standard,Not Completed,90,85,84
male,master's degree,standard,Completed,91,85,85
male,high school,standard,Not Completed,64,54,50
female,high school,standard,Not Completed,59,72,68
male,associate's degree,standard,Not Completed,80,75,69
male,master's degree,standard,Not Completed,71,67,67
female,high school,standard,Not Completed,61,68,63
female,some college,standard,Not Completed,87,85,93
male,some high school,standard,Not Completed,82,67,61
male,some high school,standard,Not Completed,62,64,55
female,bachelor's degree,standard,Not Completed,97,97,96
male,some college,free/reduced,Not Completed,75,68,65
female,bachelor's degree,standard,Not Completed,65,79,81
male,high school,standard,Completed,52,49,46
male,associate's degree,free/reduced,Not Completed,87,73,72
female,associate's degree,standard,Not Completed,53,62,53
female,master's degree,free/reduced,Not Completed,81,86,87
male,bachelor's degree,free/reduced,Completed,39,42,38
female,some college,standard,Completed,71,71,80
male,associate's degree,standard,Not Completed,97,93,91
male,some college,standard,Completed,82,82,88
male,high school,free/reduced,Not Completed,59,53,52
male,associate's degree,standard,Not Completed,61,42,41
male,associate's degree,free/reduced,Completed,78,74,72
male,associate's degree,free/reduced,Not Completed,49,51,51
male,high school,standard,Not Completed,59,58,47
female,some college,standard,Completed,70,72,76
male,associate's degree,standard,Completed,82,84,78
male,associate's degree,free/reduced,Not Completed,90,90,82
female,bachelor's degree,free/reduced,Not Completed,43,62,61
male,some college,free/reduced,Not Completed,80,64,66
male,some college,standard,Not Completed,81,82,84
male,some high school,standard,Not Completed,57,61,54
female,some high school,standard,Not Completed,59,72,80
female,associate's degree,standard,Not Completed,64,76,74
male,bachelor's degree,standard,Completed,63,64,66
female,bachelor's degree,standard,Completed,71,70,70
female,high school,free/reduced,Not Completed,64,73,71
male,bachelor's degree,free/reduced,Not Completed,55,46,44
female,associate's degree,standard,Not Completed,51,51,54
female,associate's degree,standard,Completed,62,76,80
female,associate's degree,standard,Completed,93,100,95
male,high school,free/reduced,Not Completed,54,72,59
female,some college,free/reduced,Not Completed,69,65,74
male,high school,free/reduced,Not Completed,44,51,48
female,some college,standard,Completed,86,85,91
female,associate's degree,standard,Not Completed,85,92,85
female,master's degree,free/reduced,Not Completed,50,67,73
male,some high school,standard,Completed,88,74,75
female,associate's degree,standard,Not Completed,59,62,69
female,some high school,free/reduced,Not Completed,32,34,38
male,high school,free/reduced,Not Completed,36,29,27
female,some high school,free/reduced,Completed,63,78,79
male,associate's degree,standard,Completed,67,54,63
female,some high school,standard,Completed,65,78,82
male,master's degree,standard,Not Completed,85,84,89
female,master's degree,standard,Not Completed,73,78,74
female,high school,free/reduced,Completed,34,48,41
female,bachelor's degree,free/reduced,Completed,93,100,100
female,some high school,free/reduced,Not Completed,67,84,84
male,some college,standard,Not Completed,88,77,77
male,high school,standard,Not Completed,57,48,51
female,some college,standard,Completed,79,84,91
female,bachelor's degree,free/reduced,Not Completed,67,75,72
male,bachelor's degree,standard,Completed,70,64,70
male,bachelor's degree,free/reduced,Not Completed,50,42,48
female,some college,standard,Not Completed,69,84,82
female,bachelor's degree,standard,Completed,52,61,66
female,bachelor's degree,free/reduced,Completed,47,62,66
female,associate's degree,free/reduced,Not Completed,46,61,55
female,some college,standard,Not Completed,68,70,66
male,bachelor's degree,standard,Completed,100,100,100
female,high school,standard,Not Completed,44,61,52
female,associate's degree,standard,Completed,57,77,80
male,some college,standard,Completed,91,96,91
male,high school,free/reduced,Not Completed,69,70,67
female,high school,free/reduced,Not Completed,35,53,46
male,high school,standard,Not Completed,72,66,66
female,associate's degree,free/reduced,Not Completed,54,65,65
male,high school,free/reduced,Not Completed,74,70,69
male,some high school,standard,Completed,74,64,60
male,associate's degree,free/reduced,Not Completed,64,56,52
female,high school,free/reduced,Completed,65,61,71
male,associate's degree,free/reduced,Completed,46,43,44
female,some high school,free/reduced,Not Completed,48,56,51
male,some college,free/reduced,Completed,67,74,70
male,some college,free/reduced,Not Completed,62,57,62
male,associate's degree,free/reduced,Completed,61,71,73
male,bachelor's degree,free/reduced,Completed,70,75,74
male,associate's degree,standard,Completed,98,87,90
male,some college,free/reduced,Not Completed,70,63,58
male,associate's degree,standard,Not Completed,67,57,53
female,high school,free/reduced,Not Completed,57,58,57
male,some college,standard,Completed,85,81,85
male,some high school,standard,Completed,77,68,69
male,master's degree,free/reduced,Completed,72,66,72
female,master's degree,standard,Not Completed,78,91,96
male,high school,standard,Not Completed,81,66,64
male,some high school,free/reduced,Completed,61,62,61
female,high school,standard,Not Completed,58,68,61
female,associate's degree,standard,Not Completed,54,61,58
male,high school,standard,Not Completed,82,82,80
female,some college,free/reduced,Not Completed,49,58,60
male,some high school,free/reduced,Completed,49,50,52
female,high school,free/reduced,Completed,57,75,73
male,high school,standard,Not Completed,94,73,71
female,some college,standard,Completed,75,77,83
female,some high school,free/reduced,Not Completed,74,74,72
male,high school,standard,Completed,58,52,54
female,some college,standard,Not Completed,62,69,69
male,associate's degree,standard,Not Completed,72,57,62
male,some college,standard,Not Completed,84,87,81
female,master's degree,standard,Not Completed,92,100,100
female,high school,standard,Not Completed,45,63,59
male,high school,standard,Not Completed,75,81,71
female,some college,standard,Not Completed,56,58,64
female,some high school,free/reduced,Not Completed,48,54,53
female,associate's degree,standard,Not Completed,100,100,100
female,some high school,free/reduced,Completed,65,76,75
male,some college,standard,Not Completed,72,57,58
female,some college,standard,Not Completed,62,70,72
male,some high school,standard,Completed,66,68,64
male,some college,standard,Not Completed,63,63,60
female,associate's degree,standard,Not Completed,68,76,67
female,bachelor's degree,standard,Not Completed,75,84,80
female,bachelor's degree,standard,Not Completed,89,100,100
male,some high school,standard,Completed,78,72,69
female,high school,free/reduced,Completed,53,50,60
female,some college,free/reduced,Not Completed,49,65,61
female,some college,standard,Not Completed,54,63,67
female,some college,standard,Completed,64,82,77
male,some college,free/reduced,Completed,60,62,60
male,associate's degree,standard,Not Completed,62,65,58
male,high school,standard,Completed,55,41,48
female,associate's degree,standard,Not Completed,91,95,94
female,high school,free/reduced,Not Completed,8,24,23
male,some high school,standard,Not Completed,81,78,78
male,some high school,standard,Completed,79,85,86
female,some college,standard,Completed,78,87,91
female,some high school,standard,Not Completed,74,75,82
male,high school,standard,Not Completed,57,51,54
female,associate's degree,standard,Not Completed,40,59,51
male,some high school,standard,Completed,81,75,76
female,some high school,free/reduced,Not Completed,44,45,45
female,some college,free/reduced,Completed,67,86,83
male,high school,free/reduced,Completed,86,81,75
female,some high school,standard,Completed,65,82,78
female,associate's degree,free/reduced,Not Completed,55,76,76
female,bachelor's degree,free/reduced,Not Completed,62,72,74
male,high school,standard,Not Completed,63,63,62
female,master's degree,standard,Completed,88,99,95
male,high school,free/reduced,Not Completed,62,55,55
female,high school,free/reduced,Completed,59,71,65
female,some college,standard,Completed,68,78,77
female,some college,free/reduced,Not Completed,77,86,86
